In-Class Exercise
…
df_pivot<-pivot_longer(annual_df,!Year)

print(df_pivot, n=15)

## # A tibble: 88 x 3
##     Year name                          value
##    <dbl> <chr>                         <dbl>
##  1  2010 Sifir_ikinciEl_Satilan_Konut    NA 
##  2  2010 Ipotekli_Satilan_Konut          NA 
##  3  2010 Sifir_Satilan_Konut             NA 
##  4  2010 Ikinci_El_Satilan_Konut         NA 
##  5  2010 Yabanciya_Satilan_Konut         NA 
##  6  2010 YeniKonut_Fiyat_Endeks         457.
##  7  2010 Istanbul_TR10                  447.
##  8  2010 M2_Fiyati                    17542.
##  9  2011 Sifir_ikinciEl_Satilan_Konut    NA 
## 10  2011 Ipotekli_Satilan_Konut          NA 
## 11  2011 Sifir_Satilan_Konut             NA 
## 12  2011 Ikinci_El_Satilan_Konut         NA 
## 13  2011 Yabanciya_Satilan_Konut         NA 
## 14  2011 YeniKonut_Fiyat_Endeks         494.
## 15  2011 Istanbul_TR10                  488.
## # ... with 73 more rows
…
